{ "columns":32,
 "image":"..\/textures\/tiles.gif",
 "imageheight":256,
 "imagewidth":256,
 "margin":0,
 "name":"tiles",
 "spacing":0,
 "tilecount":1024,
 "tiledversion":"1.2.3",
 "tileheight":8,
 "tilewidth":8,
 "type":"tileset",
 "version":1.2
}